{
	"download": 67651182.28514701,
	"upload": 29240361.62834512,
	"ping": 8.413,
	"server": {
		"url": "http://jp-nperf.verizon.net:8080/speedtest/upload.php",
		"lat": "35.6833",
		"lon": "139.6833",
		"name": "Tokyo",
		"country": "Japan",
		"cc": "JP",
		"sponsor": "Verizon",
		"id": "50467",
		"host": "jp-nperf.verizon.net:8080",
		"d": 0.9055321956015426,
		"latency": 8.413
	},
	"timestamp": "2022-11-26T08:15:41.522003Z",
	"bytes_sent": 48717824,
	"bytes_received": 84939116,
	"share": null,
	"client": {
		"ip": "210.161.158.140",
		"lat": "35.6897",
		"lon": "139.6895",
		"isp": "NTT",
		"isprating": "3.7",
		"rating": "0",
		"ispdlavg": "0",
		"ispulavg": "0",
		"loggedin": "0",
		"country": "JP"
	}
}
