{
	"download": 23436991.955706563,
	"upload": 7696583.136202022,
	"ping": 33.435,
	"server": {
		"url": "http://ty8.speedtest.gslnetworks.com:8080/speedtest/upload.php",
		"lat": "35.6833",
		"lon": "139.6833",
		"name": "Tokyo",
		"country": "Japan",
		"cc": "JP",
		"sponsor": "GSL Networks",
		"id": "50686",
		"host": "ty8.speedtest.gslnetworks.com:8080",
		"d": 395.6922340488785,
		"latency": 33.435
	},
	"timestamp": "2023-04-23T01:01:28.235577Z",
	"bytes_sent": 9830400,
	"bytes_received": 30289392,
	"share": null,
	"client": {
		"ip": "58.191.147.162",
		"lat": "34.6947",
		"lon": "135.5",
		"isp": "K-Opticom Corporation",
		"isprating": "3.7",
		"rating": "0",
		"ispdlavg": "0",
		"ispulavg": "0",
		"loggedin": "0",
		"country": "JP"
	}
}
