{
	"download": 80436086.77294889,
	"upload": 71454813.51445358,
	"ping": 17.651,
	"server": {
		"url": "http://jp.as.speedtest.i3d.net:8080/speedtest/upload.php",
		"lat": "35.6833",
		"lon": "139.6833",
		"name": "Tokyo",
		"country": "Japan",
		"cc": "JP",
		"sponsor": "i3D.net",
		"id": "21569",
		"host": "jp.as.speedtest.i3d.net:8080",
		"d": 0.9055321956015426,
		"latency": 17.651
	},
	"timestamp": "2023-04-17T10:30:45.420581Z",
	"bytes_sent": 102563840,
	"bytes_received": 100723876,
	"share": null,
	"client": {
		"ip": "106.154.191.112",
		"lat": "35.6897",
		"lon": "139.6895",
		"isp": "au one net",
		"isprating": "3.7",
		"rating": "0",
		"ispdlavg": "0",
		"ispulavg": "0",
		"loggedin": "0",
		"country": "JP"
	}
}
